INDEX VERSION 1.130+C:\fsd57_module3\1.JDBC\JDBCWorkSpace\.metadata\.plugins\org.eclipse.jdt.core
2885606711.index
895354549.index
2507423472.index
4135958314.index
103378668.index
542153213.index
1029538103.index
674573568.index
3644761064.index
3040837599.index
2205283528.index
1956904976.index
2066830214.index
411227453.index
3348520720.index
1961815414.index
1946725198.index
4138326577.index
4259073463.index
3523535870.index
